<!-- Generator: Adobe Illustrator 23.1.1, SVG Export Plug-In  -->
<svg version="1.1" xmlns="http://www.w3.org/2000/svg" xmlns:xlink="http://www.w3.org/1999/xlink" x="0px" y="0px"
	 width="391.46px" height="248.95px" viewBox="0 0 391.46 248.95" style="enable-background:new 0 0 391.46 248.95;"
	 xml:space="preserve">
<style type="text/css">
	.st0{clip-path:url(#SVGID_2_);fill:none;stroke:#F99B1C;stroke-width:2.835;}
	.st1{clip-path:url(#SVGID_2_);fill:#F99B1C;}
	.st2{fill:none;stroke:#F99B1C;stroke-width:2.835;}
	.st3{clip-path:url(#SVGID_4_);fill:none;stroke:#F99B1C;stroke-width:2.835;}
	.st4{clip-path:url(#SVGID_4_);fill:#F99B1C;}
</style>
<defs>
</defs>
<g>
	<defs>
		<rect id="SVGID_1_" width="391.46" height="248.95"/>
	</defs>
	<clipPath id="SVGID_2_">
		<use xlink:href="#SVGID_1_"  style="overflow:visible;"/>
	</clipPath>
	<rect x="10.42" y="8.42" class="st0" width="370.63" height="238.11"/>
	<path class="st1" d="M326,109.17v25.41l-21.05-25.41h-11.1v47.68h13.21v-25.41l21.05,25.41h11.1v-47.68H326z M206.05,147.11h-11.31
		v-9.67h11.31c4.72,0,7.08,1.61,7.08,4.84C213.14,145.5,210.77,147.11,206.05,147.11 M204.01,118.91c4.54,0,6.81,1.52,6.81,4.56
		c0,3.09-2.27,4.63-6.81,4.63h-9.26v-9.19H204.01z M218.04,131.99c2.04-1.04,3.62-2.46,4.73-4.26c1.11-1.79,1.67-3.83,1.67-6.1
		c0-3.82-1.59-6.85-4.77-9.09c-3.18-2.25-7.81-3.37-13.89-3.37h-24.39v47.68h25.75c6.36,0,11.21-1.13,14.58-3.41
		c3.36-2.27,5.04-5.49,5.04-9.67c0-2.86-0.77-5.3-2.32-7.32C222.9,134.43,220.76,132.94,218.04,131.99 M147.27,157.8
		c4.54,0,8.4-0.69,11.58-2.08c3.18-1.39,5.56-3.24,7.15-5.55c1.59-2.32,2.38-4.9,2.38-7.77c0-3.32-0.88-5.94-2.62-7.87
		c-1.75-1.93-3.82-3.34-6.2-4.22c-2.38-0.88-5.39-1.71-9.03-2.49c-3.22-0.68-5.56-1.34-7.02-1.97c-1.45-0.64-2.18-1.59-2.18-2.86
		c0-1.27,0.61-2.3,1.84-3.1c1.23-0.79,3.18-1.19,5.86-1.19c4.27,0,8.67,1.23,13.21,3.68l4.15-10.01c-2.32-1.36-5-2.4-8.04-3.1
		c-3.04-0.7-6.13-1.06-9.26-1.06c-4.59,0-8.46,0.68-11.61,2.04c-3.16,1.36-5.53,3.21-7.12,5.55c-1.59,2.34-2.38,4.96-2.38,7.87
		c0,3.32,0.86,5.95,2.59,7.9c1.73,1.95,3.79,3.37,6.2,4.26c2.41,0.89,5.4,1.71,8.99,2.49c3.27,0.73,5.64,1.42,7.12,2.08
		c1.47,0.66,2.21,1.67,2.21,3.03c0,2.59-2.59,3.88-7.76,3.88c-2.72,0-5.49-0.43-8.31-1.29c-2.82-0.86-5.29-2-7.43-3.41l-4.43,9.95
		c2.27,1.59,5.22,2.86,8.85,3.81C139.66,157.33,143.41,157.8,147.27,157.8 M100.61,156.85h13.49v-47.68h-13.49V156.85z
		 M52.25,156.85h36.24v-10.69H65.74v-36.99H52.25V156.85z"/>
	<path class="st1" d="M264.29,204.68c1.03,0,1.9-0.15,2.61-0.46c0.71-0.31,1.23-0.72,1.58-1.24c0.34-0.52,0.51-1.1,0.51-1.74
		c0-0.77-0.2-1.38-0.59-1.83s-0.88-0.79-1.45-1.01c-0.57-0.22-1.32-0.45-2.24-0.68c-0.78-0.19-1.4-0.37-1.86-0.53
		c-0.46-0.16-0.85-0.4-1.15-0.7s-0.46-0.71-0.46-1.21c0-0.67,0.28-1.22,0.84-1.65c0.56-0.43,1.39-0.64,2.49-0.64
		c0.58,0,1.16,0.09,1.76,0.26c0.6,0.17,1.16,0.43,1.69,0.78l0.45-1.06c-0.5-0.35-1.1-0.62-1.79-0.82c-0.69-0.2-1.39-0.3-2.11-0.3
		c-1.03,0-1.9,0.16-2.59,0.47c-0.7,0.31-1.21,0.73-1.55,1.25c-0.34,0.52-0.5,1.1-0.5,1.74c0,0.78,0.2,1.4,0.6,1.85
		c0.4,0.46,0.88,0.79,1.45,1.02c0.56,0.22,1.32,0.45,2.27,0.69c0.79,0.19,1.41,0.37,1.85,0.53c0.44,0.16,0.82,0.39,1.12,0.69
		c0.31,0.3,0.46,0.7,0.46,1.21c0,0.66-0.28,1.2-0.85,1.61c-0.57,0.41-1.41,0.62-2.54,0.62c-0.8,0-1.58-0.14-2.34-0.42
		c-0.76-0.28-1.36-0.65-1.82-1.11l-0.52,1.03c0.47,0.49,1.13,0.89,1.99,1.19C262.46,204.53,263.36,204.68,264.29,204.68
		 M251.77,199.44h-3.35v-6.32h3.35c1.25,0,2.2,0.27,2.86,0.82c0.66,0.55,0.99,1.33,0.99,2.35c0,1-0.33,1.77-0.99,2.32
		C253.97,199.17,253.01,199.44,251.77,199.44 M257.15,204.57l-3.08-4.32c0.92-0.3,1.63-0.79,2.13-1.47c0.5-0.68,0.75-1.51,0.75-2.49
		c0-1.34-0.46-2.4-1.37-3.17c-0.91-0.77-2.17-1.15-3.78-1.15h-4.72v12.6h1.33v-4h3.38c0.35,0,0.68-0.02,1.01-0.05l2.88,4.05H257.15z
		 M234.83,200.13l3.02-6.77l3.02,6.77H234.83z M242.87,204.57h1.4l-5.76-12.6h-1.31l-5.76,12.6h1.39l1.51-3.37h7.02L242.87,204.57z
		 M222.03,203.42v-4.68h6.52v-1.13h-6.52v-4.48h7.31v-1.15h-8.64v12.6h8.91v-1.15H222.03z M218.18,191.97h-1.33l-4.32,7.07
		l-4.32-7.07h-1.42l5.04,8.24v4.36h1.31v-4.36L218.18,191.97z M194.67,197.14h-1.62l0.43-4.01h5.76v-1.15h-6.89l-0.65,6.32h2.68
		c1.52,0,2.61,0.22,3.25,0.67s0.96,1.1,0.96,1.96c0,0.78-0.28,1.4-0.85,1.87c-0.57,0.47-1.38,0.7-2.42,0.7
		c-0.79,0-1.53-0.13-2.21-0.4c-0.68-0.27-1.24-0.62-1.66-1.05l-0.63,1.03c0.49,0.49,1.14,0.88,1.95,1.18
		c0.81,0.29,1.67,0.44,2.57,0.44c1,0,1.84-0.17,2.52-0.49c0.68-0.33,1.2-0.78,1.54-1.36c0.34-0.58,0.51-1.23,0.51-1.96
		c0-1.18-0.42-2.09-1.25-2.75C197.82,197.47,196.49,197.14,194.67,197.14 M182.09,203.42l4.28-4.21c0.8-0.78,1.35-1.47,1.64-2.07
		c0.29-0.6,0.43-1.22,0.43-1.87c0-1.06-0.38-1.89-1.12-2.49s-1.77-0.91-3.05-0.91c-0.96,0-1.82,0.16-2.58,0.47
		c-0.76,0.31-1.39,0.76-1.88,1.33l0.92,0.79c0.82-0.94,1.96-1.4,3.44-1.4c0.95,0,1.68,0.21,2.19,0.62c0.51,0.41,0.76,0.99,0.76,1.74
		c0,0.48-0.12,0.96-0.35,1.43c-0.23,0.47-0.68,1.04-1.34,1.68l-5.24,5.13v0.92h8.84v-1.15H182.09z M167.62,191.97v5.72l-4.79-5.72
		h-3.49v12.6h4.14v-5.72l4.79,5.72h3.49v-12.6H167.62z M152.19,196.73c0,0.47-0.14,0.83-0.43,1.09c-0.29,0.26-0.72,0.39-1.3,0.39
		h-1.55v-2.95h1.55c0.58,0,1.01,0.13,1.3,0.39C152.05,195.9,152.19,196.26,152.19,196.73 M152.21,204.57h4.54l-2.65-3.89
		c0.77-0.4,1.36-0.93,1.76-1.6c0.41-0.67,0.61-1.46,0.61-2.36c0-0.96-0.23-1.8-0.7-2.52s-1.13-1.27-2-1.66
		c-0.86-0.38-1.88-0.58-3.04-0.58h-6.07v12.6h4.25v-3.17h1.15L152.21,204.57z M136.01,198.2h-1.55v-2.95h1.55
		c0.58,0,1.01,0.13,1.3,0.39c0.29,0.26,0.43,0.62,0.43,1.09c0,0.47-0.14,0.83-0.43,1.09C137.02,198.07,136.59,198.2,136.01,198.2
		 M136.28,191.97h-6.07v12.6h4.25v-3.1h1.82c1.16,0,2.18-0.19,3.04-0.58s1.53-0.94,2-1.66s0.7-1.56,0.7-2.52
		c0-0.96-0.23-1.8-0.7-2.52s-1.13-1.27-2-1.66C138.46,192.17,137.44,191.97,136.28,191.97 M122.65,204.57h4.25v-12.6h-4.25V204.57z"
		/>
	<path class="st1" d="M276.14,150.21c9.22-9.22,9.22-24.17,0-33.38c-9.22-9.22-24.17-9.22-33.39,0c-5.94,5.94-8.06,14.27-6.33,21.91
		c-0.29-3.11,0.17-6.28,1.36-9.22c0.96-2.37,2.41-4.6,4.33-6.52c2.88-2.88,6.44-4.69,10.17-5.41c3.73-0.72,7.62-0.36,11.17,1.08
		c2.37,0.96,4.6,2.4,6.52,4.33c2.88,2.88,4.69,6.44,5.41,10.17c0.72,3.73,0.36,7.62-1.08,11.18c-0.96,2.37-2.41,4.59-4.33,6.51
		c-2.88,2.88-6.44,4.69-10.17,5.41c-1.83,0.35-3.71,0.45-5.56,0.28C261.87,158.26,270.19,156.15,276.14,150.21"/>
	<path class="st1" d="M242.1,130.65c2.09-2.09,4.67-3.4,7.38-3.92c2.7-0.52,5.52-0.26,8.1,0.78c1.72,0.7,3.33,1.75,4.73,3.14
		c2.09,2.09,3.4,4.67,3.92,7.38c0.52,2.7,0.26,5.52-0.79,8.1c-0.7,1.72-1.74,3.33-3.14,4.73c-2.07,2.07-4.63,3.38-7.31,3.91
		c2.63,0.15,5.28-0.27,7.76-1.28c2.15-0.87,4.16-2.18,5.91-3.93c2.62-2.62,4.25-5.84,4.9-9.22c0.65-3.38,0.33-6.91-0.98-10.14
		c-0.87-2.15-2.18-4.17-3.92-5.91c-2.62-2.62-5.84-4.25-9.22-4.91c-3.38-0.65-6.91-0.33-10.14,0.98c-2.15,0.87-4.16,2.18-5.91,3.93
		c-2.62,2.62-4.25,5.84-4.91,9.22c-0.28,1.47-0.38,2.96-0.3,4.45c0.17-0.88,0.43-1.75,0.77-2.59
		C239.66,133.65,240.71,132.04,242.1,130.65"/>
	<path class="st1" d="M263.75,136.06c-0.61-1.5-1.52-2.9-2.74-4.12c-1.83-1.83-4.07-2.97-6.43-3.42c-2.36-0.46-4.82-0.23-7.07,0.68
		c-1.5,0.61-2.9,1.52-4.12,2.74c-1.83,1.82-2.96,4.07-3.42,6.43c-0.22,1.16-0.28,2.34-0.18,3.51c0.09-0.3,0.19-0.59,0.3-0.88
		c0.44-1.1,1.11-2.12,2-3.01c1.33-1.33,2.98-2.17,4.7-2.5c1.72-0.33,3.52-0.17,5.16,0.5c1.1,0.44,2.12,1.11,3.01,2
		c1.33,1.33,2.16,2.98,2.5,4.7c0.33,1.72,0.17,3.52-0.5,5.16c-0.45,1.1-1.11,2.12-2,3.01c-1.12,1.12-2.47,1.89-3.9,2.3
		c1.97,0.18,3.97-0.11,5.82-0.86c1.5-0.61,2.9-1.52,4.12-2.74c1.83-1.83,2.96-4.07,3.42-6.43
		C264.89,140.77,264.66,138.31,263.75,136.06"/>
	<path class="st1" d="M251.27,151.16c0.88-0.35,1.69-0.89,2.4-1.6c1.07-1.07,1.73-2.38,1.99-3.75c0.27-1.38,0.13-2.81-0.4-4.12
		c-0.35-0.88-0.88-1.69-1.6-2.4c-1.07-1.07-2.38-1.73-3.75-2c-1.37-0.27-2.81-0.13-4.12,0.4c-0.87,0.35-1.69,0.89-2.4,1.6
		c-1.07,1.07-1.73,2.38-2,3.75c-0.27,1.38-0.13,2.81,0.4,4.12c0.35,0.88,0.89,1.69,1.6,2.4c1.07,1.07,2.38,1.73,3.75,2
		C248.52,151.82,249.96,151.69,251.27,151.16"/>
	<path class="st1" d="M273.22,68.04c-1.92,0-2.88-2.13-2.88-6.38s0.96-6.38,2.88-6.38c1.92,0,2.88,2.13,2.88,6.38
		S275.14,68.04,273.22,68.04 M273.22,74.85c2.23,0,4.21-0.52,5.93-1.57c1.72-1.04,3.06-2.56,4.04-4.54
		c0.97-1.98,1.46-4.34,1.46-7.08s-0.49-5.1-1.46-7.08c-0.97-1.98-2.32-3.49-4.04-4.54c-1.72-1.04-3.69-1.57-5.93-1.57
		c-2.23,0-4.21,0.52-5.93,1.57c-1.72,1.04-3.06,2.56-4.04,4.54s-1.46,4.34-1.46,7.08s0.49,5.1,1.46,7.08s2.32,3.49,4.04,4.54
		C269.01,74.33,270.99,74.85,273.22,74.85 M251.57,67.68l3.6-3.28c1.7-1.54,2.85-2.91,3.44-4.12c0.59-1.21,0.88-2.52,0.88-3.91
		c0-1.56-0.43-2.94-1.3-4.14c-0.87-1.2-2.07-2.13-3.6-2.77c-1.54-0.65-3.3-0.97-5.3-0.97c-2.62,0-4.85,0.52-6.7,1.57
		c-1.85,1.04-3.26,2.47-4.22,4.27l6.41,3.21c0.36-0.74,0.88-1.32,1.55-1.73c0.67-0.41,1.39-0.61,2.16-0.61
		c0.79,0,1.4,0.18,1.82,0.52c0.42,0.35,0.63,0.83,0.63,1.46c0,0.5-0.13,1.02-0.4,1.55c-0.26,0.53-0.79,1.17-1.59,1.91l-9.12,8.43
		v5.22h20.21v-6.59H251.57z M226.74,68.04c-1.92,0-2.88-2.13-2.88-6.38s0.96-6.38,2.88-6.38c1.92,0,2.88,2.13,2.88,6.38
		S228.66,68.04,226.74,68.04 M226.74,74.85c2.23,0,4.21-0.52,5.93-1.57c1.72-1.04,3.06-2.56,4.04-4.54
		c0.97-1.98,1.46-4.34,1.46-7.08s-0.49-5.1-1.46-7.08c-0.97-1.98-2.32-3.49-4.04-4.54c-1.72-1.04-3.69-1.57-5.93-1.57
		c-2.23,0-4.21,0.52-5.93,1.57c-1.72,1.04-3.06,2.56-4.04,4.54c-0.97,1.98-1.46,4.34-1.46,7.08s0.49,5.1,1.46,7.08
		c0.97,1.98,2.32,3.49,4.04,4.54C222.53,74.33,224.51,74.85,226.74,74.85 M205.09,67.68l3.6-3.28c1.71-1.54,2.85-2.91,3.44-4.12
		c0.59-1.21,0.88-2.52,0.88-3.91c0-1.56-0.43-2.94-1.3-4.14c-0.86-1.2-2.07-2.13-3.6-2.77c-1.54-0.65-3.3-0.97-5.3-0.97
		c-2.62,0-4.85,0.52-6.7,1.57c-1.85,1.04-3.26,2.47-4.22,4.27l6.41,3.21c0.36-0.74,0.88-1.32,1.55-1.73
		c0.67-0.41,1.39-0.61,2.16-0.61c0.79,0,1.4,0.18,1.82,0.52c0.42,0.35,0.63,0.83,0.63,1.46c0,0.5-0.13,1.02-0.4,1.55
		c-0.26,0.53-0.79,1.17-1.59,1.91l-9.12,8.43v5.22h20.21v-6.59H205.09z M175.87,49.05l-10.85,18.7l-10.95-18.7h-2.2v25.22h2.56
		V54.21l9.91,16.86h1.26l9.91-16.97v20.18h2.56V49.05H175.87z M141.78,70.17c-1.8,1.3-4,1.95-6.59,1.95c-2.04,0-3.88-0.46-5.51-1.37
		c-1.63-0.91-2.92-2.16-3.86-3.75c-0.94-1.59-1.41-3.36-1.41-5.33c0-1.97,0.47-3.75,1.41-5.35c0.94-1.6,2.23-2.85,3.87-3.75
		c1.65-0.9,3.49-1.35,5.53-1.35c3.07,0,5.61,0.99,7.6,2.95l1.66-1.69c-1.1-1.2-2.46-2.11-4.07-2.72c-1.61-0.61-3.38-0.92-5.3-0.92
		c-2.55,0-4.83,0.55-6.85,1.66c-2.02,1.1-3.6,2.64-4.76,4.59c-1.15,1.96-1.73,4.15-1.73,6.58s0.58,4.62,1.73,6.58
		c1.15,1.96,2.74,3.49,4.76,4.59c2.02,1.1,4.29,1.66,6.81,1.66c1.78,0,3.47-0.28,5.08-0.83c1.61-0.55,3-1.35,4.18-2.38v-9.62h-2.56
		V70.17z M101.28,65.38l6.05-13.55l6.05,13.55H101.28z M117.39,74.28h2.81l-11.53-25.22h-2.63L94.51,74.28h2.77l3.03-6.74h14.05
		L117.39,74.28z"/>
</g>
<line class="st2" x1="52.11" y1="91.27" x2="339.35" y2="91.27"/>
<line class="st2" x1="52.11" y1="175.1" x2="339.35" y2="175.1"/>
</svg>
