<!-- Generator: Adobe Illustrator 24.0.1, SVG Export Plug-In  -->
<svg version="1.1" xmlns="http://www.w3.org/2000/svg" xmlns:xlink="http://www.w3.org/1999/xlink" x="0px" y="0px"
	 width="370.63px" height="238.11px" viewBox="0 0 370.63 238.11" style="enable-background:new 0 0 370.63 238.11;"
	 xml:space="preserve">
<style type="text/css">
	.st0{fill:#F99B1C;}
	.st1{clip-path:url(#SVGID_2_);fill:#FFFFFF;}
	.st2{fill:none;stroke:#FFFFFF;stroke-width:2.835;}
	.st3{clip-path:url(#SVGID_4_);fill:#FFFFFF;}
</style>
<defs>
</defs>
<rect y="0" class="st0" width="370.63" height="238.11"/>
<g>
	<defs>
		<rect id="SVGID_1_" width="370.63" height="238.11"/>
	</defs>
	<clipPath id="SVGID_2_">
		<use xlink:href="#SVGID_1_"  style="overflow:visible;"/>
	</clipPath>
	<path class="st1" d="M253.88,195.56c1.03,0,1.9-0.15,2.61-0.46c0.71-0.31,1.23-0.72,1.58-1.24c0.34-0.52,0.51-1.1,0.51-1.74
		c0-0.77-0.2-1.38-0.59-1.83s-0.88-0.79-1.45-1.01s-1.32-0.45-2.24-0.68c-0.78-0.19-1.4-0.37-1.86-0.53
		c-0.46-0.16-0.85-0.4-1.15-0.7s-0.46-0.71-0.46-1.21c0-0.67,0.28-1.22,0.84-1.65c0.56-0.43,1.39-0.64,2.49-0.64
		c0.58,0,1.16,0.09,1.76,0.26c0.6,0.17,1.16,0.43,1.69,0.78l0.45-1.06c-0.5-0.35-1.1-0.62-1.79-0.82c-0.69-0.2-1.39-0.3-2.11-0.3
		c-1.03,0-1.9,0.16-2.59,0.47c-0.7,0.31-1.21,0.73-1.55,1.25s-0.5,1.1-0.5,1.74c0,0.78,0.2,1.4,0.6,1.85
		c0.4,0.46,0.88,0.79,1.45,1.02c0.56,0.22,1.32,0.45,2.27,0.69c0.79,0.19,1.41,0.37,1.85,0.53s0.82,0.39,1.12,0.69
		c0.31,0.3,0.46,0.7,0.46,1.21c0,0.66-0.28,1.2-0.85,1.61s-1.41,0.62-2.54,0.62c-0.8,0-1.58-0.14-2.34-0.42
		c-0.76-0.28-1.36-0.65-1.82-1.11l-0.52,1.03c0.47,0.49,1.13,0.89,1.99,1.19S252.94,195.56,253.88,195.56 M241.35,190.32H238V184
		h3.35c1.25,0,2.2,0.27,2.86,0.82c0.66,0.55,0.99,1.33,0.99,2.35c0,1-0.33,1.77-0.99,2.32C243.55,190.04,242.6,190.32,241.35,190.32
		 M246.73,195.45l-3.08-4.32c0.92-0.3,1.64-0.79,2.13-1.47c0.5-0.68,0.75-1.51,0.75-2.49c0-1.34-0.46-2.4-1.37-3.17
		s-2.17-1.15-3.78-1.15h-4.72v12.6H238v-4h3.38c0.35,0,0.68-0.02,1.01-0.05l2.88,4.05H246.73z M224.41,191l3.02-6.77l3.02,6.77
		H224.41z M232.46,195.45h1.4l-5.76-12.6h-1.31l-5.76,12.6h1.39l1.51-3.37h7.02L232.46,195.45z M211.61,194.3v-4.68h6.52v-1.13
		h-6.52V184h7.31v-1.15h-8.64v12.6h8.91v-1.15H211.61z M207.76,182.85h-1.33l-4.32,7.07l-4.32-7.07h-1.42l5.04,8.24v4.36h1.31v-4.36
		L207.76,182.85z M184.25,188.01h-1.62l0.43-4.01h5.76v-1.15h-6.89l-0.65,6.32h2.68c1.52,0,2.61,0.22,3.25,0.67s0.96,1.1,0.96,1.96
		c0,0.78-0.29,1.4-0.85,1.87c-0.57,0.47-1.38,0.7-2.42,0.7c-0.79,0-1.53-0.13-2.21-0.4c-0.68-0.27-1.24-0.62-1.66-1.05l-0.63,1.03
		c0.49,0.49,1.14,0.88,1.95,1.18c0.81,0.29,1.66,0.44,2.57,0.44c1,0,1.84-0.17,2.52-0.49c0.68-0.33,1.2-0.78,1.54-1.36
		c0.34-0.58,0.51-1.23,0.51-1.96c0-1.18-0.42-2.09-1.25-2.75C187.41,188.34,186.08,188.01,184.25,188.01 M171.67,194.3l4.28-4.21
		c0.8-0.78,1.35-1.47,1.64-2.07c0.29-0.6,0.43-1.22,0.43-1.87c0-1.06-0.38-1.89-1.12-2.49s-1.77-0.91-3.05-0.91
		c-0.96,0-1.82,0.16-2.58,0.47c-0.76,0.31-1.39,0.76-1.88,1.33l0.92,0.79c0.82-0.94,1.96-1.4,3.44-1.4c0.95,0,1.68,0.21,2.19,0.62
		c0.51,0.41,0.76,0.99,0.76,1.74c0,0.48-0.12,0.96-0.35,1.43c-0.23,0.47-0.68,1.04-1.34,1.68l-5.24,5.13v0.92h8.84v-1.15H171.67z
		 M157.2,182.85v5.72l-4.79-5.72h-3.49v12.6h4.14v-5.72l4.79,5.72h3.49v-12.6H157.2z M141.77,187.6c0,0.47-0.14,0.83-0.43,1.09
		c-0.29,0.26-0.72,0.39-1.3,0.39h-1.55v-2.95h1.55c0.58,0,1.01,0.13,1.3,0.39C141.63,186.77,141.77,187.13,141.77,187.6
		 M141.79,195.45h4.54l-2.65-3.89c0.77-0.4,1.36-0.93,1.76-1.6c0.41-0.67,0.61-1.46,0.61-2.36c0-0.96-0.23-1.8-0.7-2.52
		s-1.13-1.27-2-1.66c-0.86-0.38-1.88-0.58-3.04-0.58h-6.07v12.6h4.25v-3.17h1.15L141.79,195.45z M125.59,189.08h-1.55v-2.95h1.55
		c0.58,0,1.01,0.13,1.3,0.39s0.43,0.62,0.43,1.09c0,0.47-0.14,0.83-0.43,1.09C126.6,188.95,126.17,189.08,125.59,189.08
		 M125.86,182.85h-6.07v12.6h4.25v-3.1h1.82c1.16,0,2.18-0.19,3.04-0.58c0.86-0.38,1.53-0.94,2-1.66c0.47-0.72,0.7-1.56,0.7-2.52
		c0-0.96-0.23-1.8-0.7-2.52c-0.47-0.72-1.13-1.27-2-1.66C128.04,183.04,127.02,182.85,125.86,182.85 M112.24,195.45h4.25v-12.6
		h-4.25V195.45z"/>
	<path class="st1" d="M315.58,100.04v25.41l-21.05-25.41h-11.1v47.68h13.21v-25.41l21.05,25.41h11.1v-47.68H315.58z M195.63,137.98
		h-11.31v-9.67h11.31c4.72,0,7.08,1.61,7.08,4.84C202.72,136.37,200.36,137.98,195.63,137.98 M193.59,109.78
		c4.54,0,6.81,1.52,6.81,4.56c0,3.09-2.27,4.63-6.81,4.63h-9.26v-9.19H193.59z M207.62,122.86c2.04-1.04,3.62-2.46,4.73-4.26
		c1.11-1.79,1.67-3.83,1.67-6.1c0-3.82-1.59-6.85-4.77-9.09c-3.18-2.25-7.81-3.37-13.89-3.37h-24.39v47.68h25.75
		c6.36,0,11.21-1.13,14.58-3.41c3.36-2.27,5.04-5.49,5.04-9.67c0-2.86-0.77-5.3-2.32-7.32C212.48,125.3,210.35,123.81,207.62,122.86
		 M136.85,148.68c4.54,0,8.4-0.69,11.58-2.08c3.18-1.39,5.56-3.24,7.15-5.55c1.59-2.32,2.38-4.9,2.38-7.77
		c0-3.32-0.88-5.94-2.62-7.87c-1.75-1.93-3.82-3.34-6.2-4.22c-2.38-0.89-5.39-1.71-9.03-2.49c-3.22-0.68-5.56-1.34-7.02-1.97
		c-1.45-0.64-2.18-1.59-2.18-2.86c0-1.27,0.61-2.3,1.84-3.1c1.23-0.79,3.18-1.19,5.86-1.19c4.27,0,8.67,1.23,13.21,3.68l4.15-10.01
		c-2.32-1.36-5-2.4-8.04-3.1c-3.04-0.7-6.13-1.06-9.26-1.06c-4.59,0-8.46,0.68-11.61,2.04c-3.16,1.36-5.53,3.21-7.12,5.55
		c-1.59,2.34-2.38,4.96-2.38,7.87c0,3.32,0.86,5.95,2.59,7.9c1.73,1.95,3.79,3.37,6.2,4.26c2.41,0.89,5.4,1.71,8.99,2.49
		c3.27,0.73,5.64,1.42,7.12,2.08c1.47,0.66,2.21,1.67,2.21,3.03c0,2.59-2.59,3.88-7.76,3.88c-2.72,0-5.49-0.43-8.31-1.29
		c-2.82-0.86-5.29-2-7.43-3.41l-4.43,9.95c2.27,1.59,5.22,2.86,8.85,3.81C129.25,148.2,132.99,148.68,136.85,148.68 M90.19,147.72
		h13.49v-47.68H90.19V147.72z M41.83,147.72h36.24v-10.69H55.32v-36.99H41.83V147.72z"/>
	<path class="st1" d="M265.72,141.08c9.22-9.22,9.22-24.17,0-33.38c-9.22-9.22-24.17-9.22-33.39,0c-5.94,5.94-8.06,14.27-6.33,21.91
		c-0.29-3.11,0.17-6.28,1.36-9.22c0.96-2.37,2.41-4.6,4.33-6.52c2.88-2.88,6.44-4.69,10.17-5.41c3.73-0.72,7.62-0.36,11.17,1.08
		c2.37,0.96,4.6,2.4,6.52,4.33c2.88,2.88,4.69,6.44,5.41,10.17c0.72,3.73,0.36,7.62-1.08,11.18c-0.96,2.37-2.41,4.59-4.33,6.51
		c-2.88,2.88-6.44,4.69-10.17,5.41c-1.83,0.35-3.71,0.45-5.56,0.28C251.45,149.13,259.77,147.03,265.72,141.08"/>
	<path class="st1" d="M231.69,121.52c2.09-2.09,4.67-3.4,7.38-3.92c2.7-0.52,5.52-0.26,8.1,0.78c1.72,0.7,3.33,1.75,4.73,3.14
		c2.09,2.09,3.4,4.68,3.92,7.38c0.52,2.7,0.26,5.52-0.79,8.1c-0.7,1.72-1.74,3.33-3.14,4.73c-2.07,2.07-4.63,3.38-7.31,3.91
		c2.63,0.15,5.28-0.27,7.76-1.28c2.15-0.87,4.16-2.18,5.91-3.93c2.62-2.62,4.25-5.84,4.9-9.22s0.33-6.91-0.98-10.14
		c-0.87-2.15-2.18-4.17-3.92-5.91c-2.62-2.62-5.84-4.25-9.22-4.91c-3.38-0.66-6.91-0.33-10.14,0.98c-2.15,0.87-4.16,2.18-5.91,3.93
		c-2.62,2.62-4.25,5.84-4.91,9.22c-0.28,1.47-0.38,2.96-0.3,4.45c0.17-0.88,0.43-1.75,0.77-2.59
		C229.25,124.53,230.29,122.91,231.69,121.52"/>
	<path class="st1" d="M253.33,126.94c-0.61-1.5-1.52-2.9-2.74-4.12c-1.83-1.83-4.07-2.97-6.43-3.42c-2.36-0.45-4.82-0.23-7.07,0.69
		c-1.5,0.61-2.9,1.52-4.12,2.74c-1.83,1.82-2.96,4.07-3.42,6.43c-0.22,1.16-0.28,2.34-0.18,3.51c0.09-0.3,0.19-0.59,0.3-0.88
		c0.44-1.1,1.11-2.12,2-3.01c1.33-1.33,2.98-2.17,4.7-2.5c1.72-0.33,3.52-0.17,5.16,0.5c1.1,0.44,2.12,1.11,3.01,2
		c1.33,1.33,2.16,2.98,2.5,4.7c0.33,1.72,0.17,3.52-0.5,5.16c-0.44,1.1-1.11,2.12-2,3.01c-1.12,1.12-2.47,1.89-3.9,2.3
		c1.97,0.18,3.97-0.11,5.82-0.86c1.5-0.61,2.9-1.52,4.12-2.74c1.83-1.83,2.96-4.07,3.42-6.43
		C254.47,131.65,254.25,129.18,253.33,126.94"/>
	<path class="st1" d="M240.86,142.03c0.88-0.35,1.69-0.89,2.4-1.6c1.07-1.07,1.73-2.38,1.99-3.75c0.27-1.38,0.13-2.81-0.4-4.12
		c-0.35-0.88-0.88-1.69-1.6-2.4c-1.07-1.07-2.38-1.73-3.75-2c-1.37-0.27-2.81-0.13-4.12,0.4c-0.87,0.35-1.69,0.89-2.4,1.6
		c-1.07,1.07-1.73,2.38-2,3.75c-0.27,1.38-0.13,2.81,0.4,4.12c0.35,0.88,0.89,1.69,1.6,2.4c1.07,1.07,2.38,1.73,3.75,2
		C238.11,142.7,239.54,142.56,240.86,142.03"/>
	<path class="st1" d="M262.81,58.92c-1.92,0-2.88-2.13-2.88-6.38s0.96-6.38,2.88-6.38c1.92,0,2.88,2.13,2.88,6.38
		S264.73,58.92,262.81,58.92 M262.81,65.73c2.23,0,4.21-0.52,5.93-1.57c1.72-1.04,3.06-2.56,4.04-4.54
		c0.97-1.98,1.46-4.34,1.46-7.08s-0.49-5.1-1.46-7.08c-0.97-1.98-2.32-3.49-4.04-4.54c-1.72-1.04-3.69-1.57-5.93-1.57
		c-2.23,0-4.21,0.52-5.93,1.57c-1.72,1.04-3.06,2.56-4.04,4.54s-1.46,4.34-1.46,7.08s0.49,5.1,1.46,7.08s2.32,3.49,4.04,4.54
		C258.6,65.2,260.57,65.73,262.81,65.73 M241.15,58.55l3.6-3.28c1.71-1.54,2.85-2.91,3.44-4.12c0.59-1.21,0.88-2.52,0.88-3.91
		c0-1.56-0.43-2.94-1.3-4.14c-0.87-1.2-2.07-2.13-3.6-2.77c-1.54-0.65-3.3-0.97-5.3-0.97c-2.62,0-4.85,0.52-6.7,1.57
		c-1.85,1.04-3.26,2.47-4.22,4.27l6.41,3.21c0.36-0.74,0.88-1.32,1.55-1.73c0.67-0.41,1.39-0.61,2.16-0.61
		c0.79,0,1.4,0.18,1.82,0.52c0.42,0.35,0.63,0.83,0.63,1.46c0,0.5-0.13,1.02-0.4,1.55c-0.26,0.53-0.79,1.17-1.59,1.91l-9.12,8.43
		v5.22h20.21v-6.59H241.15z M216.33,58.92c-1.92,0-2.88-2.13-2.88-6.38s0.96-6.38,2.88-6.38c1.92,0,2.88,2.13,2.88,6.38
		S218.25,58.92,216.33,58.92 M216.33,65.73c2.23,0,4.21-0.52,5.93-1.57c1.72-1.04,3.06-2.56,4.04-4.54
		c0.97-1.98,1.46-4.34,1.46-7.08s-0.49-5.1-1.46-7.08c-0.97-1.98-2.32-3.49-4.04-4.54c-1.72-1.04-3.69-1.57-5.93-1.57
		c-2.23,0-4.21,0.52-5.93,1.57c-1.72,1.04-3.06,2.56-4.04,4.54c-0.97,1.98-1.46,4.34-1.46,7.08s0.49,5.1,1.46,7.08
		c0.97,1.98,2.32,3.49,4.04,4.54C212.12,65.2,214.09,65.73,216.33,65.73 M194.67,58.55l3.6-3.28c1.71-1.54,2.85-2.91,3.44-4.12
		c0.59-1.21,0.88-2.52,0.88-3.91c0-1.56-0.43-2.94-1.3-4.14c-0.86-1.2-2.07-2.13-3.6-2.77c-1.54-0.65-3.3-0.97-5.3-0.97
		c-2.62,0-4.85,0.52-6.7,1.57c-1.85,1.04-3.26,2.47-4.22,4.27l6.41,3.21c0.36-0.74,0.88-1.32,1.55-1.73
		c0.67-0.41,1.39-0.61,2.16-0.61c0.79,0,1.4,0.18,1.82,0.52c0.42,0.35,0.63,0.83,0.63,1.46c0,0.5-0.13,1.02-0.4,1.55
		c-0.26,0.53-0.79,1.17-1.59,1.91l-9.12,8.43v5.22h20.21v-6.59H194.67z M165.45,39.93l-10.85,18.7l-10.95-18.7h-2.2v25.22h2.56
		V45.08l9.91,16.86h1.26l9.91-16.97v20.18h2.56V39.93H165.45z M131.36,61.04c-1.8,1.3-4,1.95-6.59,1.95c-2.04,0-3.88-0.46-5.51-1.37
		c-1.63-0.91-2.92-2.16-3.86-3.75c-0.94-1.59-1.41-3.36-1.41-5.33c0-1.97,0.47-3.75,1.41-5.35c0.94-1.6,2.23-2.85,3.87-3.75
		c1.65-0.9,3.49-1.35,5.53-1.35c3.07,0,5.61,0.99,7.6,2.95l1.66-1.69c-1.1-1.2-2.46-2.11-4.07-2.72c-1.61-0.61-3.38-0.92-5.3-0.92
		c-2.55,0-4.83,0.55-6.84,1.66c-2.02,1.1-3.6,2.64-4.76,4.59c-1.15,1.96-1.73,4.15-1.73,6.58s0.58,4.62,1.73,6.58
		c1.15,1.96,2.74,3.49,4.76,4.59c2.02,1.1,4.29,1.66,6.81,1.66c1.78,0,3.47-0.28,5.08-0.83c1.61-0.55,3-1.35,4.18-2.38v-9.62h-2.56
		V61.04z M90.87,56.25l6.05-13.55l6.05,13.55H90.87z M106.97,65.15h2.81L98.25,39.93h-2.63L84.09,65.15h2.77l3.03-6.74h14.05
		L106.97,65.15z"/>
</g>
<line class="st2" x1="41.69" y1="82.14" x2="328.94" y2="82.14"/>
<line class="st2" x1="41.69" y1="165.98" x2="328.94" y2="165.98"/>
</svg>
