<!-- Generator: Adobe Illustrator 23.1.1, SVG Export Plug-In  -->
<svg version="1.1" xmlns="http://www.w3.org/2000/svg" xmlns:xlink="http://www.w3.org/1999/xlink" x="0px" y="0px"
	 width="218.21px" height="218.21px" viewBox="0 0 218.21 218.21" style="enable-background:new 0 0 218.21 218.21;"
	 xml:space="preserve">
<style type="text/css">
	.st0{fill:#F99B1C;}
	.st1{fill:none;stroke:#FFFFFF;stroke-width:13.35;}
	.st2{fill:none;stroke:#FFFFFF;stroke-width:11.375;}
</style>
<defs>
</defs>
<g>
	<path class="st0" d="M41.65,0C41.65,0,0,0,0,41.65v134.9c0,0,0,41.65,41.65,41.65h134.9c0,0,41.65,0,41.65-41.65V41.65
		c0,0,0-41.65-41.65-41.65H41.65z"/>
	<path class="st0" d="M168.53,109.32c0,32.82-26.61,59.43-59.43,59.43c-32.82,0-59.43-26.61-59.43-59.43
		c0-32.82,26.61-59.43,59.43-59.43C141.92,49.89,168.53,76.5,168.53,109.32"/>
	<path class="st1" d="M168.53,109.32c0,32.82-26.61,59.43-59.43,59.43c-32.82,0-59.43-26.61-59.43-59.43
		c0-32.82,26.61-59.43,59.43-59.43C141.92,49.89,168.53,76.5,168.53,109.32z"/>
	<polyline class="st2" points="105.63,71.55 105.63,117.7 146.88,117.7 	"/>
</g>
</svg>
